<?xml version="1.0" encoding="UTF-8"?><svg xmlns="http://www.w3.org/2000/svg" xmlns:xlink="http://www.w3.org/1999/xlink" fill-opacity="1" color-rendering="auto" color-interpolation="auto" text-rendering="auto" stroke="black" stroke-linecap="square" width="1105" stroke-miterlimit="10" shape-rendering="auto" stroke-opacity="1" fill="black" stroke-dasharray="none" font-weight="normal" stroke-width="1" height="332" font-family="'Dialog'" font-style="normal" stroke-linejoin="miter" font-size="12px" stroke-dashoffset="0" image-rendering="auto">
  <!--Generated by ySVG 2.5-->
  <defs id="genericDefs"/>
  <g>
    <defs id="defs1">
      <linearGradient x1="611" gradientUnits="userSpaceOnUse" x2="691" y1="395" y2="435" id="linearGradient1" spreadMethod="reflect">
        <stop stop-opacity="1" stop-color="rgb(232,238,247)" offset="0%"/>
        <stop stop-opacity="1" stop-color="rgb(153,204,255)" offset="100%"/>
      </linearGradient>
      <linearGradient x1="611" gradientUnits="userSpaceOnUse" x2="691" y1="557" y2="597" id="linearGradient2" spreadMethod="reflect">
        <stop stop-opacity="1" stop-color="rgb(232,238,247)" offset="0%"/>
        <stop stop-opacity="1" stop-color="rgb(204,255,204)" offset="100%"/>
      </linearGradient>
      <linearGradient x1="715" gradientUnits="userSpaceOnUse" x2="795" y1="395" y2="435" id="linearGradient3" spreadMethod="reflect">
        <stop stop-opacity="1" stop-color="rgb(232,238,247)" offset="0%"/>
        <stop stop-opacity="1" stop-color="rgb(153,204,255)" offset="100%"/>
      </linearGradient>
      <linearGradient x1="825" gradientUnits="userSpaceOnUse" x2="905" y1="395" y2="435" id="linearGradient4" spreadMethod="reflect">
        <stop stop-opacity="1" stop-color="rgb(232,238,247)" offset="0%"/>
        <stop stop-opacity="1" stop-color="rgb(153,204,255)" offset="100%"/>
      </linearGradient>
      <linearGradient x1="930" gradientUnits="userSpaceOnUse" x2="1010" y1="395" y2="435" id="linearGradient5" spreadMethod="reflect">
        <stop stop-opacity="1" stop-color="rgb(232,238,247)" offset="0%"/>
        <stop stop-opacity="1" stop-color="rgb(153,204,255)" offset="100%"/>
      </linearGradient>
      <linearGradient x1="1035" gradientUnits="userSpaceOnUse" x2="1115" y1="395" y2="435" id="linearGradient6" spreadMethod="reflect">
        <stop stop-opacity="1" stop-color="rgb(232,238,247)" offset="0%"/>
        <stop stop-opacity="1" stop-color="rgb(153,204,255)" offset="100%"/>
      </linearGradient>
      <linearGradient x1="715" gradientUnits="userSpaceOnUse" x2="795" y1="530.5" y2="570.5" id="linearGradient7" spreadMethod="reflect">
        <stop stop-opacity="1" stop-color="rgb(232,238,247)" offset="0%"/>
        <stop stop-opacity="1" stop-color="rgb(204,255,204)" offset="100%"/>
      </linearGradient>
      <linearGradient x1="825" gradientUnits="userSpaceOnUse" x2="905" y1="482" y2="522" id="linearGradient8" spreadMethod="reflect">
        <stop stop-opacity="1" stop-color="rgb(232,238,247)" offset="0%"/>
        <stop stop-opacity="1" stop-color="rgb(204,255,204)" offset="100%"/>
      </linearGradient>
      <linearGradient x1="930" gradientUnits="userSpaceOnUse" x2="1010" y1="482" y2="522" id="linearGradient9" spreadMethod="reflect">
        <stop stop-opacity="1" stop-color="rgb(232,238,247)" offset="0%"/>
        <stop stop-opacity="1" stop-color="silver" offset="100%"/>
      </linearGradient>
      <linearGradient x1="1035" gradientUnits="userSpaceOnUse" x2="1115" y1="482" y2="522" id="linearGradient10" spreadMethod="reflect">
        <stop stop-opacity="1" stop-color="rgb(232,238,247)" offset="0%"/>
        <stop stop-opacity="1" stop-color="rgb(204,255,204)" offset="100%"/>
      </linearGradient>
      <linearGradient x1="715" gradientUnits="userSpaceOnUse" x2="795" y1="583.5" y2="623.5" id="linearGradient11" spreadMethod="reflect">
        <stop stop-opacity="1" stop-color="rgb(232,238,247)" offset="0%"/>
        <stop stop-opacity="1" stop-color="rgb(204,255,204)" offset="100%"/>
      </linearGradient>
      <linearGradient x1="825" gradientUnits="userSpaceOnUse" x2="905" y1="557" y2="597" id="linearGradient12" spreadMethod="reflect">
        <stop stop-opacity="1" stop-color="rgb(232,238,247)" offset="0%"/>
        <stop stop-opacity="1" stop-color="rgb(204,255,204)" offset="100%"/>
      </linearGradient>
      <linearGradient x1="930" gradientUnits="userSpaceOnUse" x2="1010" y1="557" y2="597" id="linearGradient13" spreadMethod="reflect">
        <stop stop-opacity="1" stop-color="rgb(232,238,247)" offset="0%"/>
        <stop stop-opacity="1" stop-color="silver" offset="100%"/>
      </linearGradient>
      <linearGradient x1="1035" gradientUnits="userSpaceOnUse" x2="1115" y1="557" y2="597" id="linearGradient14" spreadMethod="reflect">
        <stop stop-opacity="1" stop-color="rgb(232,238,247)" offset="0%"/>
        <stop stop-opacity="1" stop-color="rgb(204,255,204)" offset="100%"/>
      </linearGradient>
      <linearGradient x1="825" gradientUnits="userSpaceOnUse" x2="905" y1="633" y2="673" id="linearGradient15" spreadMethod="reflect">
        <stop stop-opacity="1" stop-color="rgb(232,238,247)" offset="0%"/>
        <stop stop-opacity="1" stop-color="rgb(204,255,204)" offset="100%"/>
      </linearGradient>
      <linearGradient x1="930" gradientUnits="userSpaceOnUse" x2="1010" y1="633" y2="673" id="linearGradient16" spreadMethod="reflect">
        <stop stop-opacity="1" stop-color="rgb(232,238,247)" offset="0%"/>
        <stop stop-opacity="1" stop-color="rgb(204,255,204)" offset="100%"/>
      </linearGradient>
      <linearGradient x1="1035" gradientUnits="userSpaceOnUse" x2="1115" y1="633" y2="673" id="linearGradient17" spreadMethod="reflect">
        <stop stop-opacity="1" stop-color="rgb(232,238,247)" offset="0%"/>
        <stop stop-opacity="1" stop-color="rgb(204,255,204)" offset="100%"/>
      </linearGradient>
      <linearGradient x1="1155" gradientUnits="userSpaceOnUse" x2="1265" y1="477" y2="527" id="linearGradient18" spreadMethod="reflect">
        <stop stop-opacity="1" stop-color="rgb(232,238,247)" offset="0%"/>
        <stop stop-opacity="1" stop-color="rgb(255,153,204)" offset="100%"/>
      </linearGradient>
      <linearGradient x1="1155" gradientUnits="userSpaceOnUse" x2="1265" y1="552" y2="602" id="linearGradient19" spreadMethod="reflect">
        <stop stop-opacity="1" stop-color="rgb(232,238,247)" offset="0%"/>
        <stop stop-opacity="1" stop-color="rgb(255,153,204)" offset="100%"/>
      </linearGradient>
      <linearGradient x1="1155" gradientUnits="userSpaceOnUse" x2="1265" y1="627" y2="677" id="linearGradient20" spreadMethod="reflect">
        <stop stop-opacity="1" stop-color="rgb(232,238,247)" offset="0%"/>
        <stop stop-opacity="1" stop-color="rgb(255,153,204)" offset="100%"/>
      </linearGradient>
      <clipPath clipPathUnits="userSpaceOnUse" id="clipPath1">
        <path d="M0 0 L1105 0 L1105 332 L0 332 L0 0 Z"/>
      </clipPath>
      <clipPath clipPathUnits="userSpaceOnUse" id="clipPath2">
        <path d="M175 380 L1280 380 L1280 712 L175 712 L175 380 Z"/>
      </clipPath>
      <clipPath clipPathUnits="userSpaceOnUse" id="clipPath3">
        <path d="M106.3781 -18 L106.3781 1087 L-225.6219 1087 L-225.6219 -18 L106.3781 -18 Z"/>
      </clipPath>
      <clipPath clipPathUnits="userSpaceOnUse" id="clipPath4">
        <path d="M193.3742 -18 L193.3742 1087 L-138.6258 1087 L-138.6258 -18 L193.3742 -18 Z"/>
      </clipPath>
      <clipPath clipPathUnits="userSpaceOnUse" id="clipPath5">
        <path d="M291.4822 -18 L291.4822 1087 L-40.5178 1087 L-40.5178 -18 L291.4822 -18 Z"/>
      </clipPath>
    </defs>
    <g fill="white" text-rendering="geometricPrecision" shape-rendering="geometricPrecision" transform="translate(-175,-380)" stroke="white">
      <rect x="175" width="1105" height="332" y="380" clip-path="url(#clipPath2)" stroke="none"/>
    </g>
    <g fill="white" text-rendering="geometricPrecision" shape-rendering="geometricPrecision" transform="matrix(1,0,0,1,-175,-380)" stroke="white">
      <path d="M190 395 L190 425 L559 425 L559 395 Z" stroke="none" clip-path="url(#clipPath2)"/>
      <rect x="190" width="369" height="272" y="425" clip-path="url(#clipPath2)" stroke="none"/>
      <line clip-path="url(#clipPath2)" fill="rgb(153,153,153)" x1="214" x2="559" y1="425" y2="425" stroke="none"/>
      <rect x="190" y="425" clip-path="url(#clipPath2)" fill="rgb(153,153,153)" width="24" height="79" stroke="none"/>
      <rect x="214" y="425" clip-path="url(#clipPath2)" fill="silver" width="345" height="79" stroke="none"/>
      <rect x="190" y="504" clip-path="url(#clipPath2)" fill="silver" width="24" height="90" stroke="none"/>
      <rect x="214" width="345" height="90" y="504" clip-path="url(#clipPath2)" stroke="none"/>
      <rect x="190" y="594" clip-path="url(#clipPath2)" fill="rgb(153,153,153)" width="24" height="103" stroke="none"/>
      <rect x="214" y="594" clip-path="url(#clipPath2)" fill="silver" width="345" height="103" stroke="none"/>
    </g>
    <g text-rendering="geometricPrecision" stroke-miterlimit="1.45" shape-rendering="geometricPrecision" transform="matrix(1,0,0,1,-175,-380)" stroke-linecap="butt">
      <rect fill="none" x="190" width="369" height="302" y="395" clip-path="url(#clipPath2)"/>
      <rect fill="none" x="214" width="345" height="272" y="425" clip-path="url(#clipPath2)"/>
      <rect fill="none" x="190" width="369" height="79" y="425" clip-path="url(#clipPath2)"/>
      <rect fill="none" x="190" width="369" height="90" y="504" clip-path="url(#clipPath2)"/>
      <rect fill="none" x="190" width="369" height="103" y="594" clip-path="url(#clipPath2)"/>
    </g>
    <g font-size="15px" stroke-linecap="butt" transform="matrix(1,0,0,1,-175,-380)" text-rendering="geometricPrecision" font-family="sans-serif" shape-rendering="geometricPrecision" stroke-miterlimit="1.45">
      <text x="341.6273" xml:space="preserve" y="417.0351" clip-path="url(#clipPath2)" stroke="none">Branches</text>
    </g>
    <g text-rendering="geometricPrecision" stroke-miterlimit="1.45" shape-rendering="geometricPrecision" font-family="sans-serif" transform="matrix(-0,-1,1,-0,18,106.3781)" stroke-linecap="butt">
      <text x="2" xml:space="preserve" y="14.8281" clip-path="url(#clipPath3)" stroke="none">master</text>
    </g>
    <g text-rendering="geometricPrecision" stroke-miterlimit="1.45" shape-rendering="geometricPrecision" font-family="sans-serif" transform="matrix(-0,-1,1,-0,18,193.3742)" stroke-linecap="butt">
      <text x="2" xml:space="preserve" y="14.8281" clip-path="url(#clipPath4)" stroke="none">develop</text>
    </g>
    <g text-rendering="geometricPrecision" stroke-miterlimit="1.45" shape-rendering="geometricPrecision" font-family="sans-serif" transform="matrix(-0,-1,1,-0,18,291.4822)" stroke-linecap="butt">
      <text x="2" xml:space="preserve" y="14.8281" clip-path="url(#clipPath5)" stroke="none">feature1</text>
    </g>
    <g fill="lime" text-rendering="geometricPrecision" shape-rendering="geometricPrecision" transform="matrix(1,0,0,1,-175,-380)" stroke="lime">
      <circle r="15" clip-path="url(#clipPath2)" cx="453" cy="556" stroke="none"/>
    </g>
    <g text-rendering="geometricPrecision" stroke-miterlimit="1.45" shape-rendering="geometricPrecision" transform="matrix(1,0,0,1,-175,-380)" stroke-linecap="butt">
      <circle fill="none" r="15" clip-path="url(#clipPath2)" cx="453" cy="556"/>
    </g>
    <g fill="fuchsia" text-rendering="geometricPrecision" shape-rendering="geometricPrecision" transform="matrix(1,0,0,1,-175,-380)" stroke="fuchsia">
      <circle r="15" clip-path="url(#clipPath2)" cx="352" cy="642" stroke="none"/>
    </g>
    <g text-rendering="geometricPrecision" stroke-miterlimit="1.45" shape-rendering="geometricPrecision" transform="matrix(1,0,0,1,-175,-380)" stroke-linecap="butt">
      <circle fill="none" r="15" clip-path="url(#clipPath2)" cx="352" cy="642"/>
    </g>
    <g fill="fuchsia" text-rendering="geometricPrecision" shape-rendering="geometricPrecision" transform="matrix(1,0,0,1,-175,-380)" stroke="fuchsia">
      <circle r="15" clip-path="url(#clipPath2)" cx="403" cy="642" stroke="none"/>
    </g>
    <g text-rendering="geometricPrecision" stroke-miterlimit="1.45" shape-rendering="geometricPrecision" transform="matrix(1,0,0,1,-175,-380)" stroke-linecap="butt">
      <circle fill="none" r="15" clip-path="url(#clipPath2)" cx="403" cy="642"/>
    </g>
    <g fill="rgb(51,204,204)" text-rendering="geometricPrecision" shape-rendering="geometricPrecision" transform="matrix(1,0,0,1,-175,-380)" stroke="rgb(51,204,204)">
      <circle r="15" clip-path="url(#clipPath2)" cx="268" cy="465" stroke="none"/>
    </g>
    <g text-rendering="geometricPrecision" stroke-miterlimit="1.45" shape-rendering="geometricPrecision" transform="matrix(1,0,0,1,-175,-380)" stroke-linecap="butt">
      <circle fill="none" r="15" clip-path="url(#clipPath2)" cx="268" cy="465"/>
      <text x="229.5637" xml:space="preserve" y="498.8281" clip-path="url(#clipPath2)" font-family="sans-serif" stroke="none">initial commit</text>
    </g>
    <g fill="rgb(51,204,204)" text-rendering="geometricPrecision" shape-rendering="geometricPrecision" transform="matrix(1,0,0,1,-175,-380)" stroke="rgb(51,204,204)">
      <circle r="15" clip-path="url(#clipPath2)" cx="509" cy="465" stroke="none"/>
    </g>
    <g text-rendering="geometricPrecision" stroke-miterlimit="1.45" shape-rendering="geometricPrecision" transform="matrix(1,0,0,1,-175,-380)" stroke-linecap="butt">
      <circle fill="none" r="15" clip-path="url(#clipPath2)" cx="509" cy="465"/>
      <text x="492.4399" xml:space="preserve" y="498.8281" clip-path="url(#clipPath2)" font-family="sans-serif" stroke="none">v1.0.0</text>
    </g>
    <g fill="lime" text-rendering="geometricPrecision" shape-rendering="geometricPrecision" transform="matrix(1,0,0,1,-175,-380)" stroke="lime">
      <circle r="15" clip-path="url(#clipPath2)" cx="309" cy="556" stroke="none"/>
    </g>
    <g text-rendering="geometricPrecision" stroke-miterlimit="1.45" shape-rendering="geometricPrecision" transform="matrix(1,0,0,1,-175,-380)" stroke-linecap="butt">
      <circle fill="none" r="15" clip-path="url(#clipPath2)" cx="309" cy="556"/>
    </g>
    <g fill="url(#linearGradient1)" text-rendering="geometricPrecision" shape-rendering="geometricPrecision" transform="matrix(1,0,0,1,-175,-380)" stroke="url(#linearGradient1)">
      <path d="M611 395 L681 395 L691 415 L681 435 L611 435 Z" stroke="none" clip-path="url(#clipPath2)"/>
    </g>
    <g text-rendering="geometricPrecision" stroke-miterlimit="1.45" shape-rendering="geometricPrecision" transform="matrix(1,0,0,1,-175,-380)" stroke-linecap="butt">
      <path fill="none" d="M611 395 L681 395 L691 415 L681 435 L611 435 Z" clip-path="url(#clipPath2)"/>
      <text x="636.8159" xml:space="preserve" y="419.656" clip-path="url(#clipPath2)" font-family="sans-serif" stroke="none">build</text>
    </g>
    <g fill="url(#linearGradient2)" text-rendering="geometricPrecision" shape-rendering="geometricPrecision" transform="matrix(1,0,0,1,-175,-380)" stroke="url(#linearGradient2)">
      <path d="M611 557 L691 557 L691 597 L611 597 Z" stroke="none" clip-path="url(#clipPath2)"/>
    </g>
    <g text-rendering="geometricPrecision" stroke-miterlimit="1.45" shape-rendering="geometricPrecision" transform="matrix(1,0,0,1,-175,-380)" stroke-linecap="butt">
      <path fill="none" d="M611 557 L691 557 L691 597 L611 597 Z" clip-path="url(#clipPath2)"/>
      <text x="636.8159" xml:space="preserve" y="581.656" clip-path="url(#clipPath2)" font-family="sans-serif" stroke="none">build</text>
    </g>
    <g fill="url(#linearGradient3)" text-rendering="geometricPrecision" shape-rendering="geometricPrecision" transform="matrix(1,0,0,1,-175,-380)" stroke="url(#linearGradient3)">
      <path d="M715 395 L785 395 L795 415 L785 435 L715 435 Z" stroke="none" clip-path="url(#clipPath2)"/>
    </g>
    <g text-rendering="geometricPrecision" stroke-miterlimit="1.45" shape-rendering="geometricPrecision" transform="matrix(1,0,0,1,-175,-380)" stroke-linecap="butt">
      <path fill="none" d="M715 395 L785 395 L795 415 L785 435 L715 435 Z" clip-path="url(#clipPath2)"/>
      <text x="744.4099" xml:space="preserve" y="419.656" clip-path="url(#clipPath2)" font-family="sans-serif" stroke="none">test</text>
    </g>
    <g fill="url(#linearGradient4)" text-rendering="geometricPrecision" shape-rendering="geometricPrecision" transform="matrix(1,0,0,1,-175,-380)" stroke="url(#linearGradient4)">
      <path d="M825 395 L895 395 L905 415 L895 435 L825 435 Z" stroke="none" clip-path="url(#clipPath2)"/>
    </g>
    <g text-rendering="geometricPrecision" stroke-miterlimit="1.45" shape-rendering="geometricPrecision" transform="matrix(1,0,0,1,-175,-380)" stroke-linecap="butt">
      <path fill="none" d="M825 395 L895 395 L905 415 L895 435 L825 435 Z" clip-path="url(#clipPath2)"/>
      <text x="845.3679" xml:space="preserve" y="419.656" clip-path="url(#clipPath2)" font-family="sans-serif" stroke="none">upload</text>
    </g>
    <g fill="url(#linearGradient5)" text-rendering="geometricPrecision" shape-rendering="geometricPrecision" transform="matrix(1,0,0,1,-175,-380)" stroke="url(#linearGradient5)">
      <path d="M930 395 L1000 395 L1010 415 L1000 435 L930 435 Z" stroke="none" clip-path="url(#clipPath2)"/>
    </g>
    <g text-rendering="geometricPrecision" stroke-miterlimit="1.45" shape-rendering="geometricPrecision" transform="matrix(1,0,0,1,-175,-380)" stroke-linecap="butt">
      <path fill="none" d="M930 395 L1000 395 L1010 415 L1000 435 L930 435 Z" clip-path="url(#clipPath2)"/>
      <text x="950.9979" xml:space="preserve" y="419.656" clip-path="url(#clipPath2)" font-family="sans-serif" stroke="none">deploy</text>
    </g>
    <g fill="url(#linearGradient6)" text-rendering="geometricPrecision" shape-rendering="geometricPrecision" transform="matrix(1,0,0,1,-175,-380)" stroke="url(#linearGradient6)">
      <path d="M1035 395 L1105 395 L1115 415 L1105 435 L1035 435 Z" stroke="none" clip-path="url(#clipPath2)"/>
    </g>
    <g text-rendering="geometricPrecision" stroke-miterlimit="1.45" shape-rendering="geometricPrecision" transform="matrix(1,0,0,1,-175,-380)" stroke-linecap="butt">
      <path fill="none" d="M1035 395 L1105 395 L1115 415 L1105 435 L1035 435 Z" clip-path="url(#clipPath2)"/>
      <text x="1051.7139" xml:space="preserve" y="419.656" clip-path="url(#clipPath2)" font-family="sans-serif" stroke="none">approve</text>
    </g>
    <g fill="url(#linearGradient7)" text-rendering="geometricPrecision" shape-rendering="geometricPrecision" transform="matrix(1,0,0,1,-175,-380)" stroke="url(#linearGradient7)">
      <path d="M715 530.5 L795 530.5 L795 570.5 L715 570.5 Z" stroke="none" clip-path="url(#clipPath2)"/>
    </g>
    <g text-rendering="geometricPrecision" stroke-miterlimit="1.45" shape-rendering="geometricPrecision" transform="matrix(1,0,0,1,-175,-380)" stroke-linecap="butt">
      <path fill="none" d="M715 530.5 L795 530.5 L795 570.5 L715 570.5 Z" clip-path="url(#clipPath2)"/>
      <text x="723.0918" xml:space="preserve" y="555.156" clip-path="url(#clipPath2)" font-family="sans-serif" stroke="none">test-debain</text>
    </g>
    <g fill="url(#linearGradient8)" text-rendering="geometricPrecision" shape-rendering="geometricPrecision" transform="matrix(1,0,0,1,-175,-380)" stroke="url(#linearGradient8)">
      <path d="M825 482 L905 482 L905 522 L825 522 Z" stroke="none" clip-path="url(#clipPath2)"/>
    </g>
    <g text-rendering="geometricPrecision" stroke-miterlimit="1.45" shape-rendering="geometricPrecision" transform="matrix(1,0,0,1,-175,-380)" stroke-linecap="butt">
      <path fill="none" d="M825 482 L905 482 L905 522 L825 522 Z" clip-path="url(#clipPath2)"/>
      <text x="839.7458" xml:space="preserve" y="506.656" clip-path="url(#clipPath2)" font-family="sans-serif" stroke="none">upload-p</text>
    </g>
    <g fill="url(#linearGradient9)" text-rendering="geometricPrecision" shape-rendering="geometricPrecision" transform="matrix(1,0,0,1,-175,-380)" stroke="url(#linearGradient9)">
      <path d="M930 482 L1010 482 L1010 522 L930 522 Z" stroke="none" clip-path="url(#clipPath2)"/>
    </g>
    <g text-rendering="geometricPrecision" stroke-miterlimit="1.45" shape-rendering="geometricPrecision" transform="matrix(1,0,0,1,-175,-380)" stroke-linecap="butt">
      <path fill="none" d="M930 482 L1010 482 L1010 522 L930 522 Z" clip-path="url(#clipPath2)"/>
      <text x="945.3759" xml:space="preserve" y="506.656" clip-path="url(#clipPath2)" font-family="sans-serif" stroke="none">deploy-p</text>
    </g>
    <g fill="url(#linearGradient10)" text-rendering="geometricPrecision" shape-rendering="geometricPrecision" transform="matrix(1,0,0,1,-175,-380)" stroke="url(#linearGradient10)">
      <path d="M1035 482 L1115 482 L1115 522 L1035 522 Z" stroke="none" clip-path="url(#clipPath2)"/>
    </g>
    <g text-rendering="geometricPrecision" stroke-miterlimit="1.45" shape-rendering="geometricPrecision" transform="matrix(1,0,0,1,-175,-380)" stroke-linecap="butt">
      <path fill="none" d="M1035 482 L1115 482 L1115 522 L1035 522 Z" clip-path="url(#clipPath2)"/>
      <text x="1046.0918" xml:space="preserve" y="506.656" clip-path="url(#clipPath2)" font-family="sans-serif" stroke="none">approve-p</text>
    </g>
    <g fill="url(#linearGradient11)" text-rendering="geometricPrecision" shape-rendering="geometricPrecision" transform="matrix(1,0,0,1,-175,-380)" stroke="url(#linearGradient11)">
      <path d="M715 583.5 L795 583.5 L795 623.5 L715 623.5 Z" stroke="none" clip-path="url(#clipPath2)"/>
    </g>
    <g text-rendering="geometricPrecision" stroke-miterlimit="1.45" shape-rendering="geometricPrecision" transform="matrix(1,0,0,1,-175,-380)" stroke-linecap="butt">
      <path fill="none" d="M715 583.5 L795 583.5 L795 623.5 L715 623.5 Z" clip-path="url(#clipPath2)"/>
      <text x="723.6858" xml:space="preserve" y="608.156" clip-path="url(#clipPath2)" font-family="sans-serif" stroke="none">test-redhat</text>
    </g>
    <g fill="url(#linearGradient12)" text-rendering="geometricPrecision" shape-rendering="geometricPrecision" transform="matrix(1,0,0,1,-175,-380)" stroke="url(#linearGradient12)">
      <path d="M825 557 L905 557 L905 597 L825 597 Z" stroke="none" clip-path="url(#clipPath2)"/>
    </g>
    <g text-rendering="geometricPrecision" stroke-miterlimit="1.45" shape-rendering="geometricPrecision" transform="matrix(1,0,0,1,-175,-380)" stroke-linecap="butt">
      <path fill="none" d="M825 557 L905 557 L905 597 L825 597 Z" clip-path="url(#clipPath2)"/>
      <text x="840.5618" xml:space="preserve" y="581.656" clip-path="url(#clipPath2)" font-family="sans-serif" stroke="none">upload-s</text>
    </g>
    <g fill="url(#linearGradient13)" text-rendering="geometricPrecision" shape-rendering="geometricPrecision" transform="matrix(1,0,0,1,-175,-380)" stroke="url(#linearGradient13)">
      <path d="M930 557 L1010 557 L1010 597 L930 597 Z" stroke="none" clip-path="url(#clipPath2)"/>
    </g>
    <g text-rendering="geometricPrecision" stroke-miterlimit="1.45" shape-rendering="geometricPrecision" transform="matrix(1,0,0,1,-175,-380)" stroke-linecap="butt">
      <path fill="none" d="M930 557 L1010 557 L1010 597 L930 597 Z" clip-path="url(#clipPath2)"/>
      <text x="946.1918" xml:space="preserve" y="581.656" clip-path="url(#clipPath2)" font-family="sans-serif" stroke="none">deploy-s</text>
    </g>
    <g fill="url(#linearGradient14)" text-rendering="geometricPrecision" shape-rendering="geometricPrecision" transform="matrix(1,0,0,1,-175,-380)" stroke="url(#linearGradient14)">
      <path d="M1035 557 L1115 557 L1115 597 L1035 597 Z" stroke="none" clip-path="url(#clipPath2)"/>
    </g>
    <g text-rendering="geometricPrecision" stroke-miterlimit="1.45" shape-rendering="geometricPrecision" transform="matrix(1,0,0,1,-175,-380)" stroke-linecap="butt">
      <path fill="none" d="M1035 557 L1115 557 L1115 597 L1035 597 Z" clip-path="url(#clipPath2)"/>
      <text x="1046.9078" xml:space="preserve" y="581.656" clip-path="url(#clipPath2)" font-family="sans-serif" stroke="none">approve-s</text>
    </g>
    <g fill="url(#linearGradient15)" text-rendering="geometricPrecision" shape-rendering="geometricPrecision" transform="matrix(1,0,0,1,-175,-380)" stroke="url(#linearGradient15)">
      <path d="M825 633 L905 633 L905 673 L825 673 Z" stroke="none" clip-path="url(#clipPath2)"/>
    </g>
    <g text-rendering="geometricPrecision" stroke-miterlimit="1.45" shape-rendering="geometricPrecision" transform="matrix(1,0,0,1,-175,-380)" stroke-linecap="butt">
      <path fill="none" d="M825 633 L905 633 L905 673 L825 673 Z" clip-path="url(#clipPath2)"/>
      <text x="841.2698" xml:space="preserve" y="657.656" clip-path="url(#clipPath2)" font-family="sans-serif" stroke="none">upload-t</text>
    </g>
    <g fill="url(#linearGradient16)" text-rendering="geometricPrecision" shape-rendering="geometricPrecision" transform="matrix(1,0,0,1,-175,-380)" stroke="url(#linearGradient16)">
      <path d="M930 633 L1010 633 L1010 673 L930 673 Z" stroke="none" clip-path="url(#clipPath2)"/>
    </g>
    <g text-rendering="geometricPrecision" stroke-miterlimit="1.45" shape-rendering="geometricPrecision" transform="matrix(1,0,0,1,-175,-380)" stroke-linecap="butt">
      <path fill="none" d="M930 633 L1010 633 L1010 673 L930 673 Z" clip-path="url(#clipPath2)"/>
      <text x="946.8998" xml:space="preserve" y="657.656" clip-path="url(#clipPath2)" font-family="sans-serif" stroke="none">deploy-t</text>
    </g>
    <g fill="url(#linearGradient17)" text-rendering="geometricPrecision" shape-rendering="geometricPrecision" transform="matrix(1,0,0,1,-175,-380)" stroke="url(#linearGradient17)">
      <path d="M1035 633 L1115 633 L1115 673 L1035 673 Z" stroke="none" clip-path="url(#clipPath2)"/>
    </g>
    <g text-rendering="geometricPrecision" stroke-miterlimit="1.45" shape-rendering="geometricPrecision" transform="matrix(1,0,0,1,-175,-380)" stroke-linecap="butt">
      <path fill="none" d="M1035 633 L1115 633 L1115 673 L1035 673 Z" clip-path="url(#clipPath2)"/>
      <text x="1047.6158" xml:space="preserve" y="657.656" clip-path="url(#clipPath2)" font-family="sans-serif" stroke="none">approve-t</text>
    </g>
    <g fill="url(#linearGradient18)" text-rendering="geometricPrecision" shape-rendering="geometricPrecision" transform="matrix(1,0,0,1,-175,-380)" stroke="url(#linearGradient18)">
      <path d="M1168.75 503.5 C1155 489.5 1168.75 477 1191.3 486 C1191.3 477 1228.7 477 1228.7 486 C1251.25 477 1265 489.5 1251.25 500.5 C1265 514.5 1251.25 527 1234.2 518 C1228.7 527 1191.3 527 1196.8 518 C1168.75 527 1155 514.5 1168.75 503.5 Z" stroke="none" clip-path="url(#clipPath2)"/>
    </g>
    <g text-rendering="geometricPrecision" stroke-miterlimit="1.45" shape-rendering="geometricPrecision" transform="matrix(1,0,0,1,-175,-380)" stroke-linecap="butt">
      <path fill="none" d="M1168.75 503.5 C1155 489.5 1168.75 477 1191.3 486 C1191.3 477 1228.7 477 1228.7 486 C1251.25 477 1265 489.5 1251.25 500.5 C1265 514.5 1251.25 527 1234.2 518 C1228.7 527 1191.3 527 1196.8 518 C1168.75 527 1155 514.5 1168.75 503.5 Z" clip-path="url(#clipPath2)"/>
      <text x="1178.9318" xml:space="preserve" y="506.656" clip-path="url(#clipPath2)" font-family="sans-serif" stroke="none">Production</text>
    </g>
    <g fill="url(#linearGradient19)" text-rendering="geometricPrecision" shape-rendering="geometricPrecision" transform="matrix(1,0,0,1,-175,-380)" stroke="url(#linearGradient19)">
      <path d="M1168.75 578.5 C1155 564.5 1168.75 552 1191.3 561 C1191.3 552 1228.7 552 1228.7 561 C1251.25 552 1265 564.5 1251.25 575.5 C1265 589.5 1251.25 602 1234.2 593 C1228.7 602 1191.3 602 1196.8 593 C1168.75 602 1155 589.5 1168.75 578.5 Z" stroke="none" clip-path="url(#clipPath2)"/>
    </g>
    <g text-rendering="geometricPrecision" stroke-miterlimit="1.45" shape-rendering="geometricPrecision" transform="matrix(1,0,0,1,-175,-380)" stroke-linecap="butt">
      <path fill="none" d="M1168.75 578.5 C1155 564.5 1168.75 552 1191.3 561 C1191.3 552 1228.7 552 1228.7 561 C1251.25 552 1265 564.5 1251.25 575.5 C1265 589.5 1251.25 602 1234.2 593 C1228.7 602 1191.3 602 1196.8 593 C1168.75 602 1155 589.5 1168.75 578.5 Z" clip-path="url(#clipPath2)"/>
      <text x="1188.5378" xml:space="preserve" y="581.656" clip-path="url(#clipPath2)" font-family="sans-serif" stroke="none">Staging</text>
    </g>
    <g fill="url(#linearGradient20)" text-rendering="geometricPrecision" shape-rendering="geometricPrecision" transform="matrix(1,0,0,1,-175,-380)" stroke="url(#linearGradient20)">
      <path d="M1168.75 653.5 C1155 639.5 1168.75 627 1191.3 636 C1191.3 627 1228.7 627 1228.7 636 C1251.25 627 1265 639.5 1251.25 650.5 C1265 664.5 1251.25 677 1234.2 668 C1228.7 677 1191.3 677 1196.8 668 C1168.75 677 1155 664.5 1168.75 653.5 Z" stroke="none" clip-path="url(#clipPath2)"/>
    </g>
    <g text-rendering="geometricPrecision" stroke-miterlimit="1.45" shape-rendering="geometricPrecision" transform="matrix(1,0,0,1,-175,-380)" stroke-linecap="butt">
      <path fill="none" d="M1168.75 653.5 C1155 639.5 1168.75 627 1191.3 636 C1191.3 627 1228.7 627 1228.7 636 C1251.25 627 1265 639.5 1251.25 650.5 C1265 664.5 1251.25 677 1234.2 668 C1228.7 677 1191.3 677 1196.8 668 C1168.75 677 1155 664.5 1168.75 653.5 Z" clip-path="url(#clipPath2)"/>
      <text x="1198.2399" xml:space="preserve" y="656.656" clip-path="url(#clipPath2)" font-family="sans-serif" stroke="none">Test</text>
    </g>
    <g text-rendering="geometricPrecision" stroke-miterlimit="1.45" shape-rendering="geometricPrecision" transform="matrix(1,0,0,1,-175,-380)" stroke-linecap="butt">
      <path fill="none" d="M367 642 L380 642" clip-path="url(#clipPath2)"/>
      <path d="M388 642 L376 637 L379 642 L376 647 Z" clip-path="url(#clipPath2)" stroke="none"/>
      <path fill="none" d="M418.0122 642 L430.5 642 L435.7734 641.3953 L440.3438 639.5812 L444.2109 636.5578 L447.375 632.325 L449.8359 626.8828 L451.5938 620.2313 L452.6484 612.3703 L453 603.3 L453 579" clip-path="url(#clipPath2)"/>
      <path d="M453 571 L448 583 L453 580 L458 583 Z" clip-path="url(#clipPath2)" stroke="none"/>
      <text x="438.5879" xml:space="preserve" y="618.7421" clip-path="url(#clipPath2)" font-family="sans-serif" stroke="none">done</text>
      <path fill="none" d="M283 465 L486 465" clip-path="url(#clipPath2)"/>
      <path d="M494 465 L482 460 L485 465 L482 470 Z" clip-path="url(#clipPath2)" stroke="none"/>
      <path fill="none" d="M462.5714 544.4506 L466.75 539.4083 L471.6719 532.4005 L475.1875 524.9521 L477.2969 517.063 L478 508.7333 L478 504.9333 L478.8719 496.8099 L481.4875 489.5396 L485.8469 483.1224 L490.5864 478.8015 L490.6669 478.7422" clip-path="url(#clipPath2)"/>
      <path d="M496.9908 473.8425 L484.4425 477.2396 L489.8764 479.3547 L490.5672 485.1446 Z" clip-path="url(#clipPath2)" stroke="none"/>
      <text x="457.5818" xml:space="preserve" y="530.4894" clip-path="url(#clipPath2)" font-family="sans-serif" stroke="none">release</text>
      <path fill="none" d="M268 479.9854 L268 481.5 L268 522.45 L268 528.55 L268.2883 534.9836 L269.1531 540.5594 L270.5945 545.2773 L272.6125 549.1375 L275.207 552.1398 L278.3781 554.2844 L282.1258 555.5711 L285.9815 555.9536 L286.0815 555.9536" clip-path="url(#clipPath2)"/>
      <path d="M294.0813 556.0006 L282.1109 550.9301 L285.0815 555.9477 L282.0522 560.93 Z" clip-path="url(#clipPath2)" stroke="none"/>
      <text x="228.9517" xml:space="preserve" y="530.156" clip-path="url(#clipPath2)" font-family="sans-serif" stroke="none">create branch</text>
      <path fill="none" d="M324 556 L430 556" clip-path="url(#clipPath2)"/>
      <path d="M438 556 L426 551 L429 556 L426 561 Z" clip-path="url(#clipPath2)" stroke="none"/>
      <path fill="none" d="M309 571.0122 L309 603.3 L309.3023 612.3703 L310.2094 620.2313 L311.7211 626.8828 L313.8375 632.325 L316.5586 636.5578 L319.8844 639.5812 L323.8148 641.3953 L328.35 642 L328.9878 642" clip-path="url(#clipPath2)"/>
      <path d="M336.9878 642 L324.9878 637 L327.9878 642 L324.9878 647 Z" clip-path="url(#clipPath2)" stroke="none"/>
      <path fill="none" d="M467.9164 557.582 L603.0398 571.9133" clip-path="url(#clipPath2)" stroke="green"/>
      <path fill="green" d="M610.9952 572.7571 L599.5895 566.5193 L602.0453 571.8079 L598.5348 576.4636 Z" clip-path="url(#clipPath2)" stroke="none"/>
      <path fill="none" d="M520.7775 474.2893 L619.3799 552.0602" clip-path="url(#clipPath2)" stroke="red"/>
      <path fill="red" d="M625.6613 557.0145 L619.3357 545.6573 L618.5948 551.441 L613.1429 553.509 Z" clip-path="url(#clipPath2)" stroke="none"/>
      <path fill="none" d="M468 556 L515.3 541.15 L525.0523 538.6399 L534.9594 537.1844 L545.0211 536.7836 L555.2375 537.4375 L565.6086 539.1461 L576.1344 541.9094 L586.8149 545.7273 L597.65 550.6 L603.8434 553.6647" clip-path="url(#clipPath2)" stroke="rgb(255,153,0)"/>
      <path fill="rgb(255,153,0)" d="M611.0135 557.2129 L602.476 547.4093 L602.9471 553.2212 L598.0408 556.3719 Z" clip-path="url(#clipPath2)" stroke="none"/>
      <text x="543.6079" xml:space="preserve" y="533.656" clip-path="url(#clipPath2)" font-family="sans-serif" stroke="none">Tag</text>
      <path fill="none" d="M690.9902 566.8102 L707.2729 562.6613" clip-path="url(#clipPath2)"/>
      <path d="M715.0252 560.6859 L702.1622 558.8038 L706.3039 562.9082 L704.6313 568.4941 Z" clip-path="url(#clipPath2)" stroke="none"/>
      <path fill="none" d="M796 577.5 L841.3087 527.9232" clip-path="url(#clipPath2)" stroke="red"/>
      <path fill="red" d="M846.7056 522.0178 L834.9193 527.5027 L840.634 528.6613 L842.301 534.2489 Z" clip-path="url(#clipPath2)" stroke="none"/>
      <path fill="none" d="M905.0159 502 L921.9878 502" clip-path="url(#clipPath2)" stroke="red"/>
      <path fill="red" d="M929.9878 502 L917.9878 497 L920.9878 502 L917.9878 507 Z" clip-path="url(#clipPath2)" stroke="none"/>
      <path fill="none" d="M1010.0159 502 L1026.9878 502" clip-path="url(#clipPath2)" stroke="red"/>
      <path fill="red" d="M1034.9878 502 L1022.9878 497 L1025.9878 502 L1022.9878 507 Z" clip-path="url(#clipPath2)" stroke="none"/>
      <path fill="none" d="M690.9902 587.1898 L707.2729 591.3387" clip-path="url(#clipPath2)"/>
      <path d="M715.0252 593.3141 L704.6313 585.5059 L706.3039 591.0918 L702.1622 595.1962 Z" clip-path="url(#clipPath2)" stroke="none"/>
      <path fill="none" d="M796 577 L817.0083 577" clip-path="url(#clipPath2)" stroke="rgb(255,153,0)"/>
      <path fill="rgb(255,153,0)" d="M825.0083 577 L813.0083 572 L816.0083 577 L813.0083 582 Z" clip-path="url(#clipPath2)" stroke="none"/>
      <path fill="none" d="M905.0159 577 L921.9878 577" clip-path="url(#clipPath2)" stroke="rgb(255,153,0)"/>
      <path fill="rgb(255,153,0)" d="M929.9878 577 L917.9878 572 L920.9878 577 L917.9878 582 Z" clip-path="url(#clipPath2)" stroke="none"/>
      <path fill="none" d="M1010.0159 577 L1026.9878 577" clip-path="url(#clipPath2)" stroke="rgb(255,153,0)"/>
      <path fill="rgb(255,153,0)" d="M1034.9878 577 L1022.9878 572 L1025.9878 577 L1022.9878 582 Z" clip-path="url(#clipPath2)" stroke="none"/>
      <path fill="none" d="M795 579.5 L840.4447 627.2169" clip-path="url(#clipPath2)" stroke="green"/>
      <path fill="green" d="M845.9619 633.01 L841.3068 620.8721 L839.755 626.4927 L834.0654 627.7686 Z" clip-path="url(#clipPath2)" stroke="none"/>
      <path fill="none" d="M905.0159 653 L921.9878 653" clip-path="url(#clipPath2)" stroke="green"/>
      <path fill="green" d="M929.9878 653 L917.9878 648 L920.9878 653 L917.9878 658 Z" clip-path="url(#clipPath2)" stroke="none"/>
      <path fill="none" d="M1010.0159 653 L1026.9878 653" clip-path="url(#clipPath2)" stroke="green"/>
      <path fill="green" d="M1034.9878 653 L1022.9878 648 L1025.9878 653 L1022.9878 658 Z" clip-path="url(#clipPath2)" stroke="none"/>
    </g>
  </g>
</svg>
